\begin{thebibliography}{1}

\bibitem{Griffiths2013}
David~J. Griffiths.
\newblock {\em Introduction to Electrodynamics}.
\newblock Pearson, 2013.

\bibitem{Jackson1998}
John~David Jackson.
\newblock {\em Classical Electrodynamics}.
\newblock Wiley, 1998.

\end{thebibliography}
