\relax 
\@writefile{toc}{\contentsline {chapter}{\numberline {2}Magnetostatics}{2}}
\@writefile{lof}{\addvspace {10\p@ }}
\@writefile{lot}{\addvspace {10\p@ }}
\newlabel{divB0}{{2.1}{2}}
\newlabel{ampere}{{2.2}{2}}
\@writefile{toc}{\contentsline {section}{\numberline {2.1}Biot-Savart law and magnetic field}{2}}
\@writefile{lof}{\contentsline {figure}{\numberline {2.1}{\ignorespaces Illustration of Biot-Savart law.}}{3}}
\newlabel{fig:biotsavart}{{2.1}{3}}
\@writefile{lof}{\contentsline {figure}{\numberline {2.2}{\ignorespaces A wire segment.}}{3}}
\newlabel{fig:wiresegment}{{2.2}{3}}
\@writefile{lof}{\contentsline {figure}{\numberline {2.3}{\ignorespaces A circular loop.}}{3}}
\newlabel{fig:loop}{{2.3}{3}}
\@writefile{lof}{\contentsline {figure}{\numberline {2.4}{\ignorespaces A solenoid.}}{4}}
\newlabel{fig:solenoid}{{2.4}{4}}
\@writefile{lof}{\contentsline {figure}{\numberline {2.5}{\ignorespaces An infinite solenoid.}}{4}}
\newlabel{fig:solenoid2}{{2.5}{4}}
\@writefile{toc}{\contentsline {section}{\numberline {2.2}Magnetic vector potential}{4}}
\newlabel{magpotential}{{2.11}{4}}
\newlabel{coulombgauge}{{2.12}{4}}
\@writefile{toc}{\contentsline {section}{\numberline {2.3}Boundary conditions}{5}}
\newlabel{bcBnormal}{{2.17}{5}}
\newlabel{bcBnorm}{{2.18}{5}}
\newlabel{bcA}{{2.20}{5}}
\newlabel{bcdA}{{2.21}{5}}
\@writefile{toc}{\contentsline {section}{\numberline {2.4}Worked examples}{5}}
\@writefile{toc}{\contentsline {subsection}{\numberline {2.4.1}A circular current loop}{5}}
\@writefile{lof}{\contentsline {figure}{\numberline {2.6}{\ignorespaces A circular current loop.}}{6}}
\newlabel{fig:loop1}{{2.6}{6}}
\@writefile{toc}{\contentsline {subsection}{\numberline {2.4.2}A solenoid}{7}}
\@writefile{toc}{\contentsline {section}{\numberline {2.5}Finite difference methods for Poisson's equation}{8}}
\newlabel{poissonA}{{2.36}{8}}
\@writefile{lof}{\contentsline {figure}{\numberline {2.7}{\ignorespaces Finite difference discretization.}}{9}}
\newlabel{fig:fddomain}{{2.7}{9}}
\newlabel{poissonAcylin}{{2.40}{9}}
\newlabel{poissonAfd}{{2.45}{9}}
\newlabel{poissonAfd1}{{2.46}{9}}
\@setckpt{magnetostatics}{
\setcounter{page}{11}
\setcounter{equation}{53}
\setcounter{enumi}{0}
\setcounter{enumii}{0}
\setcounter{enumiii}{0}
\setcounter{enumiv}{0}
\setcounter{footnote}{0}
\setcounter{mpfootnote}{0}
\setcounter{part}{0}
\setcounter{chapter}{2}
\setcounter{section}{5}
\setcounter{subsection}{0}
\setcounter{subsubsection}{0}
\setcounter{paragraph}{0}
\setcounter{subparagraph}{0}
\setcounter{figure}{7}
\setcounter{table}{0}
\setcounter{parentequation}{0}
}
